%YAML 1.1
%TAG !u! tag:unity3d.com,2011:
--- !u!114 &11400000
MonoBehaviour:
  m_ObjectHideFlags: 0
  m_CorrespondingSourceObject: {fileID: 0}
  m_PrefabInstance: {fileID: 0}
  m_PrefabAsset: {fileID: 0}
  m_GameObject: {fileID: 0}
  m_Enabled: 1
  m_EditorHideFlags: 0
  m_Script: {fileID: 11500000, guid: 4c3f8f14a008e85458ac6287efa9cc88, type: 3}
  m_Name: Commander - 3 Star
  m_EditorClassIdentifier: 
  name: Commander
  icon: {fileID: 21300000, guid: 58c0d050fa8b3c74bbadbf9ab8e5a024, type: 3}
  pawn: {fileID: 2341667580664231145, guid: e34811defb3afa046b34311c72214178, type: 3}
  starRating: 2
  pawnQuality: 1
  upgradedPawn: {fileID: 0}
  origins: 00000000
  classes: 01000000
  projectilePrefab: {fileID: 0}
  AAPhysicalDamage: 30
  AAMagicDamage: 25
  AATrueDamage: 0
  AARange: 1
  attackSpeed: 8
  SAPhysicalDamage: 0
  SAMagicDamage: 0
  SATrueDamage: 0
  SAttackSpeed: 0
  SAHeal: 0
  SADuration: 3
  SARange: 3
  SAManaRegen: 55
  SAManaPerAttack: 55
  SAArmor: 0
  SAResistance: 0
  manaPerAttack: 12
  manaRegen: 6
  moveSpeed: 20
  health: 3000
  mana: 100
  armor: 15
  resistance: 20
  healing: 30
