%YAML 1.1
%TAG !u! tag:unity3d.com,2011:
--- !u!114 &11400000
MonoBehaviour:
  m_ObjectHideFlags: 0
  m_CorrespondingSourceObject: {fileID: 0}
  m_PrefabInstance: {fileID: 0}
  m_PrefabAsset: {fileID: 0}
  m_GameObject: {fileID: 0}
  m_Enabled: 1
  m_EditorHideFlags: 0
  m_Script: {fileID: 11500000, guid: 4c3f8f14a008e85458ac6287efa9cc88, type: 3}
  m_Name: Commander - 2 Star
  m_EditorClassIdentifier: 
  name: Commander
  icon: {fileID: 21300000, guid: 58c0d050fa8b3c74bbadbf9ab8e5a024, type: 3}
  pawn: {fileID: 2341667580664231145, guid: 4dc5df3010b070448b2bd88519f41fce, type: 3}
  starRating: 1
  pawnQuality: 1
  upgradedPawn: {fileID: 11400000, guid: 6678d2b2932e04247870e719842bae82, type: 2}
  origins: 00000000
  classes: 01000000
  projectilePrefab: {fileID: 0}
  AAPhysicalDamage: 25
  AAMagicDamage: 25
  AATrueDamage: 0
  AARange: 1
  attackSpeed: 8
  SAPhysicalDamage: 0
  SAMagicDamage: 0
  SATrueDamage: 0
  SAttackSpeed: 0
  SAHeal: 0
  SADuration: 3
  SARange: 2
  SAManaRegen: 70
  SAManaPerAttack: 70
  SAArmor: 0
  SAResistance: 0
  manaPerAttack: 11
  manaRegen: 4
  moveSpeed: 20
  health: 2500
  mana: 100
  armor: 10
  resistance: 15
  healing: 20
