%YAML 1.1
%TAG !u! tag:unity3d.com,2011:
--- !u!114 &11400000
MonoBehaviour:
  m_ObjectHideFlags: 0
  m_CorrespondingSourceObject: {fileID: 0}
  m_PrefabInstance: {fileID: 0}
  m_PrefabAsset: {fileID: 0}
  m_GameObject: {fileID: 0}
  m_Enabled: 1
  m_EditorHideFlags: 0
  m_Script: {fileID: 11500000, guid: 4c3f8f14a008e85458ac6287efa9cc88, type: 3}
  m_Name: Commander - 1 Star
  m_EditorClassIdentifier: 
  name: Commander
  icon: {fileID: 21300000, guid: 58c0d050fa8b3c74bbadbf9ab8e5a024, type: 3}
  pawn: {fileID: 2341667580664231145, guid: 0faf05684e43ec7498ef08bda2e58fa3, type: 3}
  starRating: 0
  pawnQuality: 1
  upgradedPawn: {fileID: 11400000, guid: 08e6179042182844db24d6d2215251a1, type: 2}
  origins: 00000000
  classes: 01000000
  projectilePrefab: {fileID: 0}
  AAPhysicalDamage: 25
  AAMagicDamage: 20
  AATrueDamage: 0
  AARange: 1
  attackSpeed: 8
  SAPhysicalDamage: 0
  SAMagicDamage: 0
  SATrueDamage: 0
  SAttackSpeed: 0
  SAHeal: 0
  SADuration: 3
  SARange: 1
  SAManaRegen: 85
  SAManaPerAttack: 85
  SAArmor: 0
  SAResistance: 0
  manaPerAttack: 11
  manaRegen: 2
  moveSpeed: 20
  health: 2000
  mana: 100
  armor: 5
  resistance: 5
  healing: 10
