%YAML 1.1
%TAG !u! tag:unity3d.com,2011:
--- !u!114 &11400000
MonoBehaviour:
  m_ObjectHideFlags: 0
  m_CorrespondingSourceObject: {fileID: 0}
  m_PrefabInstance: {fileID: 0}
  m_PrefabAsset: {fileID: 0}
  m_GameObject: {fileID: 0}
  m_Enabled: 1
  m_EditorHideFlags: 0
  m_Script: {fileID: 11500000, guid: 4c3f8f14a008e85458ac6287efa9cc88, type: 3}
  m_Name: Assassin - 1 Star
  m_EditorClassIdentifier: 
  name: Assassin
  icon: {fileID: 21300000, guid: e47df5c42abbb254a81228a49bc1ea6b, type: 3}
  pawn: {fileID: 486962601329800358, guid: 5069ba2b340cc864d90588abeb709eb9, type: 3}
  starRating: 0
  pawnQuality: 2
  upgradedPawn: {fileID: 11400000, guid: 2d507c737ccf2154aba6711ed347f212, type: 2}
  origins: 01000000
  classes: 00000000
  projectilePrefab: {fileID: 0}
  AAPhysicalDamage: 65
  AAMagicDamage: 10
  AATrueDamage: 0
  AARange: 1
  attackSpeed: 20
  SAPhysicalDamage: 500
  SAMagicDamage: 500
  SATrueDamage: 0
  SAttackSpeed: 0
  SAHeal: 0
  SADuration: 0
  SARange: 0
  SAManaRegen: 0
  SAManaPerAttack: 0
  SAArmor: 0
  SAResistance: 0
  manaPerAttack: 6
  manaRegen: 1
  moveSpeed: 20
  health: 1200
  mana: 100
  armor: 0
  resistance: 0
  healing: 0
