%YAML 1.1
%TAG !u! tag:unity3d.com,2011:
--- !u!114 &11400000
MonoBehaviour:
  m_ObjectHideFlags: 0
  m_CorrespondingSourceObject: {fileID: 0}
  m_PrefabInstance: {fileID: 0}
  m_PrefabAsset: {fileID: 0}
  m_GameObject: {fileID: 0}
  m_Enabled: 1
  m_EditorHideFlags: 0
  m_Script: {fileID: 11500000, guid: 4c3f8f14a008e85458ac6287efa9cc88, type: 3}
  m_Name: King - 1 Star
  m_EditorClassIdentifier: 
  name: King
  icon: {fileID: 21300000, guid: 37dd01eebcf309a4db213dad34bfcc2f, type: 3}
  pawn: {fileID: 4874622490137873473, guid: 058962e6b01fb71448b6c802e49f4770, type: 3}
  starRating: 0
  pawnQuality: 0
  upgradedPawn: {fileID: 11400000, guid: 65d8b9ee89cfc644bb87412a3037abb1, type: 2}
  origins: 01000000
  classes: 0000000001000000
  projectilePrefab: {fileID: 0}
  AAPhysicalDamage: 45
  AAMagicDamage: 5
  AATrueDamage: 0
  AARange: 1
  attackSpeed: 10
  SAPhysicalDamage: 120
  SAMagicDamage: 120
  SATrueDamage: 0
  SAttackSpeed: 0
  SAHeal: 0
  SADuration: 3
  SARange: 1
  SAManaRegen: 100
  SAManaPerAttack: 0
  SAArmor: 100
  SAResistance: 100
  manaPerAttack: 8
  manaRegen: 2
  moveSpeed: 9
  health: 1600
  mana: 100
  armor: 5
  resistance: 3
  healing: 10
