%YAML 1.1
%TAG !u! tag:unity3d.com,2011:
--- !u!114 &11400000
MonoBehaviour:
  m_ObjectHideFlags: 0
  m_CorrespondingSourceObject: {fileID: 0}
  m_PrefabInstance: {fileID: 0}
  m_PrefabAsset: {fileID: 0}
  m_GameObject: {fileID: 0}
  m_Enabled: 1
  m_EditorHideFlags: 0
  m_Script: {fileID: 11500000, guid: 4c3f8f14a008e85458ac6287efa9cc88, type: 3}
  m_Name: Mace - 3 Star
  m_EditorClassIdentifier: 
  name: Mace
  icon: {fileID: 21300000, guid: 9dca2c2dda55c1148a0bedc6db8e4b54, type: 3}
  pawn: {fileID: 4564126820240002223, guid: 8e30848770801834299020d23eae9f78, type: 3}
  starRating: 2
  pawnQuality: 2
  upgradedPawn: {fileID: 0}
  origins: 00000000
  classes: 0000000001000000
  projectilePrefab: {fileID: 0}
  AAPhysicalDamage: 41
  AAMagicDamage: 14
  AATrueDamage: 0
  AARange: 1
  attackSpeed: 1
  SAPhysicalDamage: 0
  SAMagicDamage: 0
  SATrueDamage: 0
  SAttackSpeed: 0
  SAHeal: 20
  SADuration: 0
  SARange: 0
  SAManaRegen: 0
  SAManaPerAttack: 0
  SAArmor: 3
  SAResistance: 3
  manaPerAttack: 9
  manaRegen: 3
  moveSpeed: 12
  health: 3500
  mana: 100
  armor: 20
  resistance: 20
  healing: 35
