%YAML 1.1
%TAG !u! tag:unity3d.com,2011:
--- !u!114 &11400000
MonoBehaviour:
  m_ObjectHideFlags: 0
  m_CorrespondingSourceObject: {fileID: 0}
  m_PrefabInstance: {fileID: 0}
  m_PrefabAsset: {fileID: 0}
  m_GameObject: {fileID: 0}
  m_Enabled: 1
  m_EditorHideFlags: 0
  m_Script: {fileID: 11500000, guid: 6b076a515d63dae43aff1c16e84e5e9c, type: 3}
  m_Name: Orc
  m_EditorClassIdentifier: 
  name: Orc
  icon: {fileID: 21300000, guid: 4c8f17d725ade61468c8287e2a5ef3b7, type: 3}
  color: {r: 1, g: 0.04705883, b: 0, a: 0}
  totalBuffSize: 2
  totalSynergySize: 4
  enemyDebuff: 0
  buffOneTooltip: "Increases passive healing of all orcs by 10.\r\nAdds 3 armour
    and 3 resistance to orcs.\r"
  buffTwoTooltip: "Increases passive healing of all orcs by 15.\r\nAdds 8 armour
    and 8 resistance to orcs.\r"
  buffThreeTooltip: 
