%YAML 1.1
%TAG !u! tag:unity3d.com,2011:
--- !u!114 &11400000
MonoBehaviour:
  m_ObjectHideFlags: 0
  m_CorrespondingSourceObject: {fileID: 0}
  m_PrefabInstance: {fileID: 0}
  m_PrefabAsset: {fileID: 0}
  m_GameObject: {fileID: 0}
  m_Enabled: 1
  m_EditorHideFlags: 0
  m_Script: {fileID: 11500000, guid: 6826bbe91015c1b45a6848986369d2f1, type: 3}
  m_Name: Human Emblem
  m_EditorClassIdentifier: 
  name: Human Emblem
  icon: {fileID: 21300000, guid: 4a5eac42c08ca724e9677b929bcdfb75, type: 3}
  item: {fileID: 333683832956622441, guid: 2957db4d73cc6884380094e47948d26b, type: 3}
  itemQuality: 2
  PhysicalDamage: 0
  MagicDamage: 0
  TrueDamage: 0
  ManaRegen: 0
  Description: Units counts as an Human.
  Health: 0
  Armor: 0
  Resistance: 0
