%YAML 1.1
%TAG !u! tag:unity3d.com,2011:
--- !u!114 &11400000
MonoBehaviour:
  m_ObjectHideFlags: 0
  m_CorrespondingSourceObject: {fileID: 0}
  m_PrefabInstance: {fileID: 0}
  m_PrefabAsset: {fileID: 0}
  m_GameObject: {fileID: 0}
  m_Enabled: 1
  m_EditorHideFlags: 0
  m_Script: {fileID: 11500000, guid: 4c3f8f14a008e85458ac6287efa9cc88, type: 3}
  m_Name: Crossbow - 3 Star
  m_EditorClassIdentifier: 
  name: Crossbow
  icon: {fileID: 21300000, guid: a7ba45f2f4c34aa4f88c2c28e51a68a4, type: 3}
  pawn: {fileID: 8913214788031115676, guid: e7e0252341c5f6445ada138a1443fe6e, type: 3}
  starRating: 2
  pawnQuality: 0
  upgradedPawn: {fileID: 0}
  origins: 01000000
  classes: 00000000
  projectilePrefab: {fileID: 5117091171567575480, guid: f4c2f8e483d703a46a6826a1ef77de18,
    type: 3}
  AAPhysicalDamage: 88
  AAMagicDamage: 5
  AATrueDamage: 3
  AARange: 4
  attackSpeed: 45
  SAPhysicalDamage: 16
  SAMagicDamage: 4
  SATrueDamage: 0
  SAttackSpeed: 10
  SAHeal: 0
  SADuration: 4
  SARange: 0
  SAManaRegen: 0
  SAManaPerAttack: 0
  SAArmor: 0
  SAResistance: 0
  manaPerAttack: 8
  manaRegen: 0
  moveSpeed: 10
  health: 1200
  mana: 100
  armor: 2
  resistance: 2
  healing: 0
