%YAML 1.1
%TAG !u! tag:unity3d.com,2011:
--- !u!114 &11400000
MonoBehaviour:
  m_ObjectHideFlags: 0
  m_CorrespondingSourceObject: {fileID: 0}
  m_PrefabInstance: {fileID: 0}
  m_PrefabAsset: {fileID: 0}
  m_GameObject: {fileID: 0}
  m_Enabled: 1
  m_EditorHideFlags: 0
  m_Script: {fileID: 11500000, guid: 4c3f8f14a008e85458ac6287efa9cc88, type: 3}
  m_Name: Crossbow - 2 Star
  m_EditorClassIdentifier: 
  name: Crossbow
  icon: {fileID: 21300000, guid: a7ba45f2f4c34aa4f88c2c28e51a68a4, type: 3}
  pawn: {fileID: 8913214788031115676, guid: 0d55e0ee9d7412041a4d69e7db602f5e, type: 3}
  starRating: 1
  pawnQuality: 0
  upgradedPawn: {fileID: 11400000, guid: 7aac1810b05870145b47a2b9f18a3769, type: 2}
  origins: 01000000
  classes: 00000000
  projectilePrefab: {fileID: 5117091171567575480, guid: f4c2f8e483d703a46a6826a1ef77de18,
    type: 3}
  AAPhysicalDamage: 85
  AAMagicDamage: 4
  AATrueDamage: 3
  AARange: 4
  attackSpeed: 38
  SAPhysicalDamage: 12
  SAMagicDamage: 3
  SATrueDamage: 0
  SAttackSpeed: 8
  SAHeal: 0
  SADuration: 4
  SARange: 0
  SAManaRegen: 0
  SAManaPerAttack: 0
  SAArmor: 0
  SAResistance: 0
  manaPerAttack: 7
  manaRegen: 0
  moveSpeed: 10
  health: 1100
  mana: 100
  armor: 1
  resistance: 1
  healing: 0
