%YAML 1.1
%TAG !u! tag:unity3d.com,2011:
--- !u!114 &11400000
MonoBehaviour:
  m_ObjectHideFlags: 0
  m_CorrespondingSourceObject: {fileID: 0}
  m_PrefabInstance: {fileID: 0}
  m_PrefabAsset: {fileID: 0}
  m_GameObject: {fileID: 0}
  m_Enabled: 1
  m_EditorHideFlags: 0
  m_Script: {fileID: 11500000, guid: 4c3f8f14a008e85458ac6287efa9cc88, type: 3}
  m_Name: Linda - 2 Star
  m_EditorClassIdentifier: 
  name: Linda
  icon: {fileID: 21300000, guid: a7a0cf4936b99254794984f552bf7e56, type: 3}
  pawn: {fileID: 3727204620226448593, guid: 4478770b67da5fb4f9bde1b0758923b1, type: 3}
  starRating: 1
  pawnQuality: 0
  upgradedPawn: {fileID: 11400000, guid: b33896697118a0f47a2ce7640b866e44, type: 2}
  origins: 01000000
  classes: 01000000
  projectilePrefab: {fileID: 5117091171567575480, guid: f4c2f8e483d703a46a6826a1ef77de18,
    type: 3}
  AAPhysicalDamage: 5
  AAMagicDamage: 35
  AATrueDamage: 0
  AARange: 3
  attackSpeed: 5
  SAPhysicalDamage: 0
  SAMagicDamage: 520
  SATrueDamage: 0
  SAttackSpeed: 0
  SAHeal: 0
  SADuration: 0
  SARange: 1
  SAManaRegen: 0
  SAManaPerAttack: 0
  SAArmor: 0
  SAResistance: 0
  manaPerAttack: 6
  manaRegen: 10
  moveSpeed: 12
  health: 1200
  mana: 100
  armor: 0
  resistance: 0
  healing: 0
